%YAML 1.1
%TAG !u! tag:unity3d.com,2011:
--- !u!1 &4476315463662544289
GameObject:
  m_ObjectHideFlags: 0
  m_CorrespondingSourceObject: {fileID: 0}
  m_PrefabInstance: {fileID: 0}
  m_PrefabAsset: {fileID: 0}
  serializedVersion: 6
  m_Component:
  - component: {fileID: 6916941407836256477}
  - component: {fileID: 6635258171128448680}
  m_Layer: 0
  m_Name: Wall
  m_TagString: Untagged
  m_Icon: {fileID: 0}
  m_NavMeshLayer: 0
  m_StaticEditorFlags: 0
  m_IsActive: 1
--- !u!4 &6916941407836256477
Transform:
  m_ObjectHideFlags: 0
  m_CorrespondingSourceObject: {fileID: 0}
  m_PrefabInstance: {fileID: 0}
  m_PrefabAsset: {fileID: 0}
  m_GameObject: {fileID: 4476315463662544289}
  serializedVersion: 2
  m_LocalRotation: {x: 0, y: 0, z: 0, w: 1}
  m_LocalPosition: {x: 0, y: 0, z: 0}
  m_LocalScale: {x: 1, y: 1, z: 1}
  m_ConstrainProportionsScale: 0
  m_Children:
  - {fileID: 4408595721766994104}
  m_Father: {fileID: 0}
  m_LocalEulerAnglesHint: {x: 0, y: 0, z: 0}
--- !u!156049354 &6635258171128448680
Grid:
  m_ObjectHideFlags: 0
  m_CorrespondingSourceObject: {fileID: 0}
  m_PrefabInstance: {fileID: 0}
  m_PrefabAsset: {fileID: 0}
  m_GameObject: {fileID: 4476315463662544289}
  m_Enabled: 1
  m_CellSize: {x: 1, y: 1, z: 0}
  m_CellGap: {x: 0, y: 0, z: 0}
  m_CellLayout: 0
  m_CellSwizzle: 0
--- !u!1 &8907916871394593612
GameObject:
  m_ObjectHideFlags: 0
  m_CorrespondingSourceObject: {fileID: 0}
  m_PrefabInstance: {fileID: 0}
  m_PrefabAsset: {fileID: 0}
  serializedVersion: 6
  m_Component:
  - component: {fileID: 4408595721766994104}
  - component: {fileID: 260611856104222542}
  - component: {fileID: 9037588333072652001}
  m_Layer: 0
  m_Name: Layer1
  m_TagString: Untagged
  m_Icon: {fileID: 0}
  m_NavMeshLayer: 0
  m_StaticEditorFlags: 0
  m_IsActive: 1
--- !u!4 &4408595721766994104
Transform:
  m_ObjectHideFlags: 0
  m_CorrespondingSourceObject: {fileID: 0}
  m_PrefabInstance: {fileID: 0}
  m_PrefabAsset: {fileID: 0}
  m_GameObject: {fileID: 8907916871394593612}
  serializedVersion: 2
  m_LocalRotation: {x: -0, y: -0, z: -0, w: 1}
  m_LocalPosition: {x: 0, y: 0, z: 0}
  m_LocalScale: {x: 1, y: 1, z: 1}
  m_ConstrainProportionsScale: 0
  m_Children: []
  m_Father: {fileID: 6916941407836256477}
  m_LocalEulerAnglesHint: {x: 0, y: 0, z: 0}
--- !u!1839735485 &260611856104222542
Tilemap:
  m_ObjectHideFlags: 0
  m_CorrespondingSourceObject: {fileID: 0}
  m_PrefabInstance: {fileID: 0}
  m_PrefabAsset: {fileID: 0}
  m_GameObject: {fileID: 8907916871394593612}
  m_Enabled: 1
  m_Tiles:
  - first: {x: -1, y: -6, z: 0}
    second:
      serializedVersion: 2
      m_TileIndex: 57
      m_TileSpriteIndex: 57
      m_TileMatrixIndex: 0
      m_TileColorIndex: 0
      m_TileObjectToInstantiateIndex: 65535
      dummyAlignment: 0
      m_AllTileFlags: 1073741825
  - first: {x: 0, y: -6, z: 0}
    second:
      serializedVersion: 2
      m_TileIndex: 58
      m_TileSpriteIndex: 58
      m_TileMatrixIndex: 0
      m_TileColorIndex: 0
      m_TileObjectToInstantiateIndex: 65535
      dummyAlignment: 0
      m_AllTileFlags: 1073741825
  - first: {x: 2, y: -6, z: 0}
    second:
      serializedVersion: 2
      m_TileIndex: 59
      m_TileSpriteIndex: 59
      m_TileMatrixIndex: 0
      m_TileColorIndex: 0
      m_TileObjectToInstantiateIndex: 65535
      dummyAlignment: 0
      m_AllTileFlags: 1073741825
  - first: {x: 3, y: -6, z: 0}
    second:
      serializedVersion: 2
      m_TileIndex: 60
      m_TileSpriteIndex: 60
      m_TileMatrixIndex: 0
      m_TileColorIndex: 0
      m_TileObjectToInstantiateIndex: 65535
      dummyAlignment: 0
      m_AllTileFlags: 1073741825
  - first: {x: -1, y: -5, z: 0}
    second:
      serializedVersion: 2
      m_TileIndex: 53
      m_TileSpriteIndex: 53
      m_TileMatrixIndex: 0
      m_TileColorIndex: 0
      m_TileObjectToInstantiateIndex: 65535
      dummyAlignment: 0
      m_AllTileFlags: 1073741825
  - first: {x: 0, y: -5, z: 0}
    second:
      serializedVersion: 2
      m_TileIndex: 54
      m_TileSpriteIndex: 54
      m_TileMatrixIndex: 0
      m_TileColorIndex: 0
      m_TileObjectToInstantiateIndex: 65535
      dummyAlignment: 0
      m_AllTileFlags: 1073741825
  - first: {x: 2, y: -5, z: 0}
    second:
      serializedVersion: 2
      m_TileIndex: 55
      m_TileSpriteIndex: 55
      m_TileMatrixIndex: 0
      m_TileColorIndex: 0
      m_TileObjectToInstantiateIndex: 65535
      dummyAlignment: 0
      m_AllTileFlags: 1073741825
  - first: {x: 3, y: -5, z: 0}
    second:
      serializedVersion: 2
      m_TileIndex: 56
      m_TileSpriteIndex: 56
      m_TileMatrixIndex: 0
      m_TileColorIndex: 0
      m_TileObjectToInstantiateIndex: 65535
      dummyAlignment: 0
      m_AllTileFlags: 1073741825
  - first: {x: -1, y: -3, z: 0}
    second:
      serializedVersion: 2
      m_TileIndex: 48
      m_TileSpriteIndex: 48
      m_TileMatrixIndex: 0
      m_TileColorIndex: 0
      m_TileObjectToInstantiateIndex: 65535
      dummyAlignment: 0
      m_AllTileFlags: 1073741825
  - first: {x: 0, y: -3, z: 0}
    second:
      serializedVersion: 2
      m_TileIndex: 49
      m_TileSpriteIndex: 49
      m_TileMatrixIndex: 0
      m_TileColorIndex: 0
      m_TileObjectToInstantiateIndex: 65535
      dummyAlignment: 0
      m_AllTileFlags: 1073741825
  - first: {x: 1, y: -3, z: 0}
    second:
      serializedVersion: 2
      m_TileIndex: 50
      m_TileSpriteIndex: 50
      m_TileMatrixIndex: 0
      m_TileColorIndex: 0
      m_TileObjectToInstantiateIndex: 65535
      dummyAlignment: 0
      m_AllTileFlags: 1073741825
  - first: {x: 2, y: -3, z: 0}
    second:
      serializedVersion: 2
      m_TileIndex: 51
      m_TileSpriteIndex: 51
      m_TileMatrixIndex: 0
      m_TileColorIndex: 0
      m_TileObjectToInstantiateIndex: 65535
      dummyAlignment: 0
      m_AllTileFlags: 1073741825
  - first: {x: 4, y: -3, z: 0}
    second:
      serializedVersion: 2
      m_TileIndex: 52
      m_TileSpriteIndex: 52
      m_TileMatrixIndex: 0
      m_TileColorIndex: 0
      m_TileObjectToInstantiateIndex: 65535
      dummyAlignment: 0
      m_AllTileFlags: 1073741825
  - first: {x: -1, y: -2, z: 0}
    second:
      serializedVersion: 2
      m_TileIndex: 43
      m_TileSpriteIndex: 43
      m_TileMatrixIndex: 0
      m_TileColorIndex: 0
      m_TileObjectToInstantiateIndex: 65535
      dummyAlignment: 0
      m_AllTileFlags: 1073741825
  - first: {x: 0, y: -2, z: 0}
    second:
      serializedVersion: 2
      m_TileIndex: 44
      m_TileSpriteIndex: 44
      m_TileMatrixIndex: 0
      m_TileColorIndex: 0
      m_TileObjectToInstantiateIndex: 65535
      dummyAlignment: 0
      m_AllTileFlags: 1073741825
  - first: {x: 1, y: -2, z: 0}
    second:
      serializedVersion: 2
      m_TileIndex: 45
      m_TileSpriteIndex: 45
      m_TileMatrixIndex: 0
      m_TileColorIndex: 0
      m_TileObjectToInstantiateIndex: 65535
      dummyAlignment: 0
      m_AllTileFlags: 1073741825
  - first: {x: 2, y: -2, z: 0}
    second:
      serializedVersion: 2
      m_TileIndex: 46
      m_TileSpriteIndex: 46
      m_TileMatrixIndex: 0
      m_TileColorIndex: 0
      m_TileObjectToInstantiateIndex: 65535
      dummyAlignment: 0
      m_AllTileFlags: 1073741825
  - first: {x: 4, y: -2, z: 0}
    second:
      serializedVersion: 2
      m_TileIndex: 47
      m_TileSpriteIndex: 47
      m_TileMatrixIndex: 0
      m_TileColorIndex: 0
      m_TileObjectToInstantiateIndex: 65535
      dummyAlignment: 0
      m_AllTileFlags: 1073741825
  - first: {x: -1, y: 0, z: 0}
    second:
      serializedVersion: 2
      m_TileIndex: 33
      m_TileSpriteIndex: 33
      m_TileMatrixIndex: 0
      m_TileColorIndex: 0
      m_TileObjectToInstantiateIndex: 65535
      dummyAlignment: 0
      m_AllTileFlags: 1073741825
  - first: {x: 0, y: 0, z: 0}
    second:
      serializedVersion: 2
      m_TileIndex: 34
      m_TileSpriteIndex: 34
      m_TileMatrixIndex: 0
      m_TileColorIndex: 0
      m_TileObjectToInstantiateIndex: 65535
      dummyAlignment: 0
      m_AllTileFlags: 1073741825
  - first: {x: 1, y: 0, z: 0}
    second:
      serializedVersion: 2
      m_TileIndex: 35
      m_TileSpriteIndex: 35
      m_TileMatrixIndex: 0
      m_TileColorIndex: 0
      m_TileObjectToInstantiateIndex: 65535
      dummyAlignment: 0
      m_AllTileFlags: 1073741825
  - first: {x: 2, y: 0, z: 0}
    second:
      serializedVersion: 2
      m_TileIndex: 36
      m_TileSpriteIndex: 36
      m_TileMatrixIndex: 0
      m_TileColorIndex: 0
      m_TileObjectToInstantiateIndex: 65535
      dummyAlignment: 0
      m_AllTileFlags: 1073741825
  - first: {x: 3, y: 0, z: 0}
    second:
      serializedVersion: 2
      m_TileIndex: 37
      m_TileSpriteIndex: 37
      m_TileMatrixIndex: 0
      m_TileColorIndex: 0
      m_TileObjectToInstantiateIndex: 65535
      dummyAlignment: 0
      m_AllTileFlags: 1073741825
  - first: {x: 4, y: 0, z: 0}
    second:
      serializedVersion: 2
      m_TileIndex: 38
      m_TileSpriteIndex: 38
      m_TileMatrixIndex: 0
      m_TileColorIndex: 0
      m_TileObjectToInstantiateIndex: 65535
      dummyAlignment: 0
      m_AllTileFlags: 1073741825
  - first: {x: 5, y: 0, z: 0}
    second:
      serializedVersion: 2
      m_TileIndex: 39
      m_TileSpriteIndex: 39
      m_TileMatrixIndex: 0
      m_TileColorIndex: 0
      m_TileObjectToInstantiateIndex: 65535
      dummyAlignment: 0
      m_AllTileFlags: 1073741825
  - first: {x: 6, y: 0, z: 0}
    second:
      serializedVersion: 2
      m_TileIndex: 40
      m_TileSpriteIndex: 40
      m_TileMatrixIndex: 0
      m_TileColorIndex: 0
      m_TileObjectToInstantiateIndex: 65535
      dummyAlignment: 0
      m_AllTileFlags: 1073741825
  - first: {x: 10, y: 0, z: 0}
    second:
      serializedVersion: 2
      m_TileIndex: 41
      m_TileSpriteIndex: 41
      m_TileMatrixIndex: 0
      m_TileColorIndex: 0
      m_TileObjectToInstantiateIndex: 65535
      dummyAlignment: 0
      m_AllTileFlags: 1073741825
  - first: {x: 11, y: 0, z: 0}
    second:
      serializedVersion: 2
      m_TileIndex: 42
      m_TileSpriteIndex: 42
      m_TileMatrixIndex: 0
      m_TileColorIndex: 0
      m_TileObjectToInstantiateIndex: 65535
      dummyAlignment: 0
      m_AllTileFlags: 1073741825
  - first: {x: -1, y: 1, z: 0}
    second:
      serializedVersion: 2
      m_TileIndex: 24
      m_TileSpriteIndex: 24
      m_TileMatrixIndex: 0
      m_TileColorIndex: 0
      m_TileObjectToInstantiateIndex: 65535
      dummyAlignment: 0
      m_AllTileFlags: 1073741825
  - first: {x: 0, y: 1, z: 0}
    second:
      serializedVersion: 2
      m_TileIndex: 25
      m_TileSpriteIndex: 25
      m_TileMatrixIndex: 0
      m_TileColorIndex: 0
      m_TileObjectToInstantiateIndex: 65535
      dummyAlignment: 0
      m_AllTileFlags: 1073741825
  - first: {x: 1, y: 1, z: 0}
    second:
      serializedVersion: 2
      m_TileIndex: 26
      m_TileSpriteIndex: 26
      m_TileMatrixIndex: 0
      m_TileColorIndex: 0
      m_TileObjectToInstantiateIndex: 65535
      dummyAlignment: 0
      m_AllTileFlags: 1073741825
  - first: {x: 2, y: 1, z: 0}
    second:
      serializedVersion: 2
      m_TileIndex: 27
      m_TileSpriteIndex: 27
      m_TileMatrixIndex: 0
      m_TileColorIndex: 0
      m_TileObjectToInstantiateIndex: 65535
      dummyAlignment: 0
      m_AllTileFlags: 1073741825
  - first: {x: 6, y: 1, z: 0}
    second:
      serializedVersion: 2
      m_TileIndex: 28
      m_TileSpriteIndex: 28
      m_TileMatrixIndex: 0
      m_TileColorIndex: 0
      m_TileObjectToInstantiateIndex: 65535
      dummyAlignment: 0
      m_AllTileFlags: 1073741825
  - first: {x: 7, y: 1, z: 0}
    second:
      serializedVersion: 2
      m_TileIndex: 29
      m_TileSpriteIndex: 29
      m_TileMatrixIndex: 0
      m_TileColorIndex: 0
      m_TileObjectToInstantiateIndex: 65535
      dummyAlignment: 0
      m_AllTileFlags: 1073741825
  - first: {x: 8, y: 1, z: 0}
    second:
      serializedVersion: 2
      m_TileIndex: 30
      m_TileSpriteIndex: 30
      m_TileMatrixIndex: 0
      m_TileColorIndex: 0
      m_TileObjectToInstantiateIndex: 65535
      dummyAlignment: 0
      m_AllTileFlags: 1073741825
  - first: {x: 10, y: 1, z: 0}
    second:
      serializedVersion: 2
      m_TileIndex: 31
      m_TileSpriteIndex: 31
      m_TileMatrixIndex: 0
      m_TileColorIndex: 0
      m_TileObjectToInstantiateIndex: 65535
      dummyAlignment: 0
      m_AllTileFlags: 1073741825
  - first: {x: 11, y: 1, z: 0}
    second:
      serializedVersion: 2
      m_TileIndex: 32
      m_TileSpriteIndex: 32
      m_TileMatrixIndex: 0
      m_TileColorIndex: 0
      m_TileObjectToInstantiateIndex: 65535
      dummyAlignment: 0
      m_AllTileFlags: 1073741825
  - first: {x: -1, y: 2, z: 0}
    second:
      serializedVersion: 2
      m_TileIndex: 13
      m_TileSpriteIndex: 13
      m_TileMatrixIndex: 0
      m_TileColorIndex: 0
      m_TileObjectToInstantiateIndex: 65535
      dummyAlignment: 0
      m_AllTileFlags: 1073741825
  - first: {x: 1, y: 2, z: 0}
    second:
      serializedVersion: 2
      m_TileIndex: 14
      m_TileSpriteIndex: 14
      m_TileMatrixIndex: 0
      m_TileColorIndex: 0
      m_TileObjectToInstantiateIndex: 65535
      dummyAlignment: 0
      m_AllTileFlags: 1073741825
  - first: {x: 2, y: 2, z: 0}
    second:
      serializedVersion: 2
      m_TileIndex: 15
      m_TileSpriteIndex: 15
      m_TileMatrixIndex: 0
      m_TileColorIndex: 0
      m_TileObjectToInstantiateIndex: 65535
      dummyAlignment: 0
      m_AllTileFlags: 1073741825
  - first: {x: 3, y: 2, z: 0}
    second:
      serializedVersion: 2
      m_TileIndex: 16
      m_TileSpriteIndex: 16
      m_TileMatrixIndex: 0
      m_TileColorIndex: 0
      m_TileObjectToInstantiateIndex: 65535
      dummyAlignment: 0
      m_AllTileFlags: 1073741825
  - first: {x: 4, y: 2, z: 0}
    second:
      serializedVersion: 2
      m_TileIndex: 17
      m_TileSpriteIndex: 17
      m_TileMatrixIndex: 0
      m_TileColorIndex: 0
      m_TileObjectToInstantiateIndex: 65535
      dummyAlignment: 0
      m_AllTileFlags: 1073741825
  - first: {x: 5, y: 2, z: 0}
    second:
      serializedVersion: 2
      m_TileIndex: 18
      m_TileSpriteIndex: 18
      m_TileMatrixIndex: 0
      m_TileColorIndex: 0
      m_TileObjectToInstantiateIndex: 65535
      dummyAlignment: 0
      m_AllTileFlags: 1073741825
  - first: {x: 6, y: 2, z: 0}
    second:
      serializedVersion: 2
      m_TileIndex: 19
      m_TileSpriteIndex: 19
      m_TileMatrixIndex: 0
      m_TileColorIndex: 0
      m_TileObjectToInstantiateIndex: 65535
      dummyAlignment: 0
      m_AllTileFlags: 1073741825
  - first: {x: 7, y: 2, z: 0}
    second:
      serializedVersion: 2
      m_TileIndex: 20
      m_TileSpriteIndex: 20
      m_TileMatrixIndex: 0
      m_TileColorIndex: 0
      m_TileObjectToInstantiateIndex: 65535
      dummyAlignment: 0
      m_AllTileFlags: 1073741825
  - first: {x: 8, y: 2, z: 0}
    second:
      serializedVersion: 2
      m_TileIndex: 21
      m_TileSpriteIndex: 21
      m_TileMatrixIndex: 0
      m_TileColorIndex: 0
      m_TileObjectToInstantiateIndex: 65535
      dummyAlignment: 0
      m_AllTileFlags: 1073741825
  - first: {x: 10, y: 2, z: 0}
    second:
      serializedVersion: 2
      m_TileIndex: 22
      m_TileSpriteIndex: 22
      m_TileMatrixIndex: 0
      m_TileColorIndex: 0
      m_TileObjectToInstantiateIndex: 65535
      dummyAlignment: 0
      m_AllTileFlags: 1073741825
  - first: {x: 11, y: 2, z: 0}
    second:
      serializedVersion: 2
      m_TileIndex: 23
      m_TileSpriteIndex: 23
      m_TileMatrixIndex: 0
      m_TileColorIndex: 0
      m_TileObjectToInstantiateIndex: 65535
      dummyAlignment: 0
      m_AllTileFlags: 1073741825
  - first: {x: -1, y: 3, z: 0}
    second:
      serializedVersion: 2
      m_TileIndex: 0
      m_TileSpriteIndex: 0
      m_TileMatrixIndex: 0
      m_TileColorIndex: 0
      m_TileObjectToInstantiateIndex: 65535
      dummyAlignment: 0
      m_AllTileFlags: 1073741825
  - first: {x: 0, y: 3, z: 0}
    second:
      serializedVersion: 2
      m_TileIndex: 1
      m_TileSpriteIndex: 1
      m_TileMatrixIndex: 0
      m_TileColorIndex: 0
      m_TileObjectToInstantiateIndex: 65535
      dummyAlignment: 0
      m_AllTileFlags: 1073741825
  - first: {x: 1, y: 3, z: 0}
    second:
      serializedVersion: 2
      m_TileIndex: 2
      m_TileSpriteIndex: 2
      m_TileMatrixIndex: 0
      m_TileColorIndex: 0
      m_TileObjectToInstantiateIndex: 65535
      dummyAlignment: 0
      m_AllTileFlags: 1073741825
  - first: {x: 2, y: 3, z: 0}
    second:
      serializedVersion: 2
      m_TileIndex: 3
      m_TileSpriteIndex: 3
      m_TileMatrixIndex: 0
      m_TileColorIndex: 0
      m_TileObjectToInstantiateIndex: 65535
      dummyAlignment: 0
      m_AllTileFlags: 1073741825
  - first: {x: 3, y: 3, z: 0}
    second:
      serializedVersion: 2
      m_TileIndex: 4
      m_TileSpriteIndex: 4
      m_TileMatrixIndex: 0
      m_TileColorIndex: 0
      m_TileObjectToInstantiateIndex: 65535
      dummyAlignment: 0
      m_AllTileFlags: 1073741825
  - first: {x: 4, y: 3, z: 0}
    second:
      serializedVersion: 2
      m_TileIndex: 5
      m_TileSpriteIndex: 5
      m_TileMatrixIndex: 0
      m_TileColorIndex: 0
      m_TileObjectToInstantiateIndex: 65535
      dummyAlignment: 0
      m_AllTileFlags: 1073741825
  - first: {x: 5, y: 3, z: 0}
    second:
      serializedVersion: 2
      m_TileIndex: 6
      m_TileSpriteIndex: 6
      m_TileMatrixIndex: 0
      m_TileColorIndex: 0
      m_TileObjectToInstantiateIndex: 65535
      dummyAlignment: 0
      m_AllTileFlags: 1073741825
  - first: {x: 6, y: 3, z: 0}
    second:
      serializedVersion: 2
      m_TileIndex: 7
      m_TileSpriteIndex: 7
      m_TileMatrixIndex: 0
      m_TileColorIndex: 0
      m_TileObjectToInstantiateIndex: 65535
      dummyAlignment: 0
      m_AllTileFlags: 1073741825
  - first: {x: 7, y: 3, z: 0}
    second:
      serializedVersion: 2
      m_TileIndex: 8
      m_TileSpriteIndex: 8
      m_TileMatrixIndex: 0
      m_TileColorIndex: 0
      m_TileObjectToInstantiateIndex: 65535
      dummyAlignment: 0
      m_AllTileFlags: 1073741825
  - first: {x: 8, y: 3, z: 0}
    second:
      serializedVersion: 2
      m_TileIndex: 9
      m_TileSpriteIndex: 9
      m_TileMatrixIndex: 0
      m_TileColorIndex: 0
      m_TileObjectToInstantiateIndex: 65535
      dummyAlignment: 0
      m_AllTileFlags: 1073741825
  - first: {x: 10, y: 3, z: 0}
    second:
      serializedVersion: 2
      m_TileIndex: 10
      m_TileSpriteIndex: 10
      m_TileMatrixIndex: 0
      m_TileColorIndex: 0
      m_TileObjectToInstantiateIndex: 65535
      dummyAlignment: 0
      m_AllTileFlags: 1073741825
  - first: {x: 11, y: 3, z: 0}
    second:
      serializedVersion: 2
      m_TileIndex: 11
      m_TileSpriteIndex: 11
      m_TileMatrixIndex: 0
      m_TileColorIndex: 0
      m_TileObjectToInstantiateIndex: 65535
      dummyAlignment: 0
      m_AllTileFlags: 1073741825
  - first: {x: 12, y: 3, z: 0}
    second:
      serializedVersion: 2
      m_TileIndex: 12
      m_TileSpriteIndex: 12
      m_TileMatrixIndex: 0
      m_TileColorIndex: 0
      m_TileObjectToInstantiateIndex: 65535
      dummyAlignment: 0
      m_AllTileFlags: 1073741825
  m_AnimatedTiles: {}
  m_TileAssetArray:
  - m_RefCount: 1
    m_Data: {fileID: 11400000, guid: bbc308732c9d72d429df1077a5ae3e85, type: 2}
  - m_RefCount: 1
    m_Data: {fileID: 11400000, guid: 14c16bef3c683f84cabad6e3954f35bc, type: 2}
  - m_RefCount: 1
    m_Data: {fileID: 11400000, guid: d2ec211107ed3ad4ca8b4b85a0e5424f, type: 2}
  - m_RefCount: 1
    m_Data: {fileID: 11400000, guid: 0ab367f18c6b4504293d85457a2e851e, type: 2}
  - m_RefCount: 1
    m_Data: {fileID: 11400000, guid: ec1fb5e478189b846a10a64850385f3c, type: 2}
  - m_RefCount: 1
    m_Data: {fileID: 11400000, guid: 5c0072f6ba152614787bacef047c62bb, type: 2}
  - m_RefCount: 1
    m_Data: {fileID: 11400000, guid: e4edbd011edf3c6488bd5505fdcaf518, type: 2}
  - m_RefCount: 1
    m_Data: {fileID: 11400000, guid: e96cb7718c2d6b349a56057f0618af2e, type: 2}
  - m_RefCount: 1
    m_Data: {fileID: 11400000, guid: 0b5dea3e262469a48ba0701d4f815de9, type: 2}
  - m_RefCount: 1
    m_Data: {fileID: 11400000, guid: 8c88a61cc782f8944a3c938c6eafdf8d, type: 2}
  - m_RefCount: 1
    m_Data: {fileID: 11400000, guid: 972482fd3d607c444a50d6fd024e6c2a, type: 2}
  - m_RefCount: 1
    m_Data: {fileID: 11400000, guid: 6633a8a94db6abb408a1312c46c008bf, type: 2}
  - m_RefCount: 1
    m_Data: {fileID: 11400000, guid: 69c3242700bae9a499016b03503b336a, type: 2}
  - m_RefCount: 1
    m_Data: {fileID: 11400000, guid: 86b14bcb24cee4e439b6f0eb53cba845, type: 2}
  - m_RefCount: 1
    m_Data: {fileID: 11400000, guid: 6f944873d02c00d48a63d1e788c0ff96, type: 2}
  - m_RefCount: 1
    m_Data: {fileID: 11400000, guid: 0b4dee32c787c02469727aec264aed3f, type: 2}
  - m_RefCount: 1
    m_Data: {fileID: 11400000, guid: e927b9a2c4e60004c81d322f6e77ea67, type: 2}
  - m_RefCount: 1
    m_Data: {fileID: 11400000, guid: 88a270623db00ff45a7fedf1353a45da, type: 2}
  - m_RefCount: 1
    m_Data: {fileID: 11400000, guid: c17145a2b102c7148a863346f7a2fcab, type: 2}
  - m_RefCount: 1
    m_Data: {fileID: 11400000, guid: 86607def01f43d54993beaa5d1b49469, type: 2}
  - m_RefCount: 1
    m_Data: {fileID: 11400000, guid: cb2b5e36906123c4a942b1c016a7af3d, type: 2}
  - m_RefCount: 1
    m_Data: {fileID: 11400000, guid: f5aab4728094e43429ce7b52141d8fe2, type: 2}
  - m_RefCount: 1
    m_Data: {fileID: 11400000, guid: 7cd40f0654d0f374da3a3dae0f6054bf, type: 2}
  - m_RefCount: 1
    m_Data: {fileID: 11400000, guid: c01956b9f75cb534a932bbc8ad253325, type: 2}
  - m_RefCount: 1
    m_Data: {fileID: 11400000, guid: 266259f403032e64abbcab2c16e27bdc, type: 2}
  - m_RefCount: 1
    m_Data: {fileID: 11400000, guid: e61cc44a44a0bea46abf548f48078e7c, type: 2}
  - m_RefCount: 1
    m_Data: {fileID: 11400000, guid: 86cab3dc6fa1abb458b01b2351dc5524, type: 2}
  - m_RefCount: 1
    m_Data: {fileID: 11400000, guid: bcd772761a308af4ba63984d1764c4ee, type: 2}
  - m_RefCount: 1
    m_Data: {fileID: 11400000, guid: c58b41e4fbb52a241a69b5ca1b9afbfb, type: 2}
  - m_RefCount: 1
    m_Data: {fileID: 11400000, guid: 4ef5f0f02f8512047b5a23dc094ce911, type: 2}
  - m_RefCount: 1
    m_Data: {fileID: 11400000, guid: 6d8a9853f3e197d41874f0c1787c0483, type: 2}
  - m_RefCount: 1
    m_Data: {fileID: 11400000, guid: d7e4b9bca3dd5ad45b0e502ee5a4e212, type: 2}
  - m_RefCount: 1
    m_Data: {fileID: 11400000, guid: 92b07466aaf6f494498b4be1d8d4aefd, type: 2}
  - m_RefCount: 1
    m_Data: {fileID: 11400000, guid: 644531f17f4d39d4e81b6280c57c919f, type: 2}
  - m_RefCount: 1
    m_Data: {fileID: 11400000, guid: 3491dc0d75aa1a8418ec03c7a8878ada, type: 2}
  - m_RefCount: 1
    m_Data: {fileID: 11400000, guid: 4491991a7bcdd1442acefd191ea506b9, type: 2}
  - m_RefCount: 1
    m_Data: {fileID: 11400000, guid: 8b14d7a8cd9f4f94aa2d6a747bba14c0, type: 2}
  - m_RefCount: 1
    m_Data: {fileID: 11400000, guid: 81b2a35d6d97c894bbd898e1ae287887, type: 2}
  - m_RefCount: 1
    m_Data: {fileID: 11400000, guid: 27ed3763b586d1b40953ec494cdd7c32, type: 2}
  - m_RefCount: 1
    m_Data: {fileID: 11400000, guid: 34128047645f57f4c8488e713fef6ab5, type: 2}
  - m_RefCount: 1
    m_Data: {fileID: 11400000, guid: 91fd5554b0bde7841bfa1a94a6339a81, type: 2}
  - m_RefCount: 1
    m_Data: {fileID: 11400000, guid: 710995a11dca0324fb44188c4321e858, type: 2}
  - m_RefCount: 1
    m_Data: {fileID: 11400000, guid: 626459306d167ff4cb9e5c2f5d6ebbea, type: 2}
  - m_RefCount: 1
    m_Data: {fileID: 11400000, guid: d46d0430f9b66474484b0a305c42dab4, type: 2}
  - m_RefCount: 1
    m_Data: {fileID: 11400000, guid: 5c61344d5a93de443ac5103c8ba96898, type: 2}
  - m_RefCount: 1
    m_Data: {fileID: 11400000, guid: 2d15c8948006748498b22181eac43276, type: 2}
  - m_RefCount: 1
    m_Data: {fileID: 11400000, guid: 9ab8505c7c57d0448b20f0dca9b15388, type: 2}
  - m_RefCount: 1
    m_Data: {fileID: 11400000, guid: 121dc1d40a534ea47a3ea66e19fe4c89, type: 2}
  - m_RefCount: 1
    m_Data: {fileID: 11400000, guid: 8b47f1fccd4287248a75171756aace1e, type: 2}
  - m_RefCount: 1
    m_Data: {fileID: 11400000, guid: 66186d7a12d908f4eaec9bbc8faf4d82, type: 2}
  - m_RefCount: 1
    m_Data: {fileID: 11400000, guid: 1aa8c1657a6e76c4a9cac7ae1d63ddaf, type: 2}
  - m_RefCount: 1
    m_Data: {fileID: 11400000, guid: 0730990556e45a24895409162c06bbfa, type: 2}
  - m_RefCount: 1
    m_Data: {fileID: 11400000, guid: 97cb4b75a4e96a444bc0877810e2b995, type: 2}
  - m_RefCount: 1
    m_Data: {fileID: 11400000, guid: 749371e9a104cee47997f06c26868ae9, type: 2}
  - m_RefCount: 1
    m_Data: {fileID: 11400000, guid: 2476453b29508754e9f3eecca5b7b7aa, type: 2}
  - m_RefCount: 1
    m_Data: {fileID: 11400000, guid: a52a7b850ca45da459a9871e35422a7e, type: 2}
  - m_RefCount: 1
    m_Data: {fileID: 11400000, guid: e93cf1f2bec26b64a98bd23382cd1e91, type: 2}
  - m_RefCount: 1
    m_Data: {fileID: 11400000, guid: 3e71644fe7ee3cf45895bbaef20bc6f6, type: 2}
  - m_RefCount: 1
    m_Data: {fileID: 11400000, guid: f09d241450a04424bbb44076ee611ed3, type: 2}
  - m_RefCount: 1
    m_Data: {fileID: 11400000, guid: c7038d41f58f0874bacdb4b2440d1f67, type: 2}
  - m_RefCount: 1
    m_Data: {fileID: 11400000, guid: 964a6ae3018f8704ebcaaea3e140e9c1, type: 2}
  m_TileSpriteArray:
  - m_RefCount: 1
    m_Data: {fileID: -180828713, guid: 343219c75412b1d41b530e34b2d5267f, type: 3}
  - m_RefCount: 1
    m_Data: {fileID: 892546032, guid: 343219c75412b1d41b530e34b2d5267f, type: 3}
  - m_RefCount: 1
    m_Data: {fileID: -1262784605, guid: 343219c75412b1d41b530e34b2d5267f, type: 3}
  - m_RefCount: 1
    m_Data: {fileID: -634758819, guid: 343219c75412b1d41b530e34b2d5267f, type: 3}
  - m_RefCount: 1
    m_Data: {fileID: 690784673, guid: 343219c75412b1d41b530e34b2d5267f, type: 3}
  - m_RefCount: 1
    m_Data: {fileID: -1330062128, guid: 343219c75412b1d41b530e34b2d5267f, type: 3}
  - m_RefCount: 1
    m_Data: {fileID: -1946841511, guid: 343219c75412b1d41b530e34b2d5267f, type: 3}
  - m_RefCount: 1
    m_Data: {fileID: -930737124, guid: 343219c75412b1d41b530e34b2d5267f, type: 3}
  - m_RefCount: 1
    m_Data: {fileID: 839962733, guid: 343219c75412b1d41b530e34b2d5267f, type: 3}
  - m_RefCount: 1
    m_Data: {fileID: -331834704, guid: 343219c75412b1d41b530e34b2d5267f, type: 3}
  - m_RefCount: 1
    m_Data: {fileID: 600461626, guid: 343219c75412b1d41b530e34b2d5267f, type: 3}
  - m_RefCount: 1
    m_Data: {fileID: -119846658, guid: 343219c75412b1d41b530e34b2d5267f, type: 3}
  - m_RefCount: 1
    m_Data: {fileID: -406591961, guid: 343219c75412b1d41b530e34b2d5267f, type: 3}
  - m_RefCount: 1
    m_Data: {fileID: 1976509264, guid: 343219c75412b1d41b530e34b2d5267f, type: 3}
  - m_RefCount: 1
    m_Data: {fileID: 1148560924, guid: 343219c75412b1d41b530e34b2d5267f, type: 3}
  - m_RefCount: 1
    m_Data: {fileID: -1284149171, guid: 343219c75412b1d41b530e34b2d5267f, type: 3}
  - m_RefCount: 1
    m_Data: {fileID: -698375654, guid: 343219c75412b1d41b530e34b2d5267f, type: 3}
  - m_RefCount: 1
    m_Data: {fileID: 1462993711, guid: 343219c75412b1d41b530e34b2d5267f, type: 3}
  - m_RefCount: 1
    m_Data: {fileID: 1558241054, guid: 343219c75412b1d41b530e34b2d5267f, type: 3}
  - m_RefCount: 1
    m_Data: {fileID: -876455615, guid: 343219c75412b1d41b530e34b2d5267f, type: 3}
  - m_RefCount: 1
    m_Data: {fileID: -714546939, guid: 343219c75412b1d41b530e34b2d5267f, type: 3}
  - m_RefCount: 1
    m_Data: {fileID: 948321678, guid: 343219c75412b1d41b530e34b2d5267f, type: 3}
  - m_RefCount: 1
    m_Data: {fileID: 1211544240, guid: 343219c75412b1d41b530e34b2d5267f, type: 3}
  - m_RefCount: 1
    m_Data: {fileID: 1189904432, guid: 343219c75412b1d41b530e34b2d5267f, type: 3}
  - m_RefCount: 1
    m_Data: {fileID: -574340849, guid: 343219c75412b1d41b530e34b2d5267f, type: 3}
  - m_RefCount: 1
    m_Data: {fileID: -813322930, guid: 343219c75412b1d41b530e34b2d5267f, type: 3}
  - m_RefCount: 1
    m_Data: {fileID: -1667316291, guid: 343219c75412b1d41b530e34b2d5267f, type: 3}
  - m_RefCount: 1
    m_Data: {fileID: -1766098508, guid: 343219c75412b1d41b530e34b2d5267f, type: 3}
  - m_RefCount: 1
    m_Data: {fileID: -111468327, guid: 343219c75412b1d41b530e34b2d5267f, type: 3}
  - m_RefCount: 1
    m_Data: {fileID: -748258926, guid: 343219c75412b1d41b530e34b2d5267f, type: 3}
  - m_RefCount: 1
    m_Data: {fileID: -1775605040, guid: 343219c75412b1d41b530e34b2d5267f, type: 3}
  - m_RefCount: 1
    m_Data: {fileID: 1731856862, guid: 343219c75412b1d41b530e34b2d5267f, type: 3}
  - m_RefCount: 1
    m_Data: {fileID: 1350675072, guid: 343219c75412b1d41b530e34b2d5267f, type: 3}
  - m_RefCount: 1
    m_Data: {fileID: -1448965007, guid: 343219c75412b1d41b530e34b2d5267f, type: 3}
  - m_RefCount: 1
    m_Data: {fileID: 2121152242, guid: 343219c75412b1d41b530e34b2d5267f, type: 3}
  - m_RefCount: 1
    m_Data: {fileID: 113694330, guid: 343219c75412b1d41b530e34b2d5267f, type: 3}
  - m_RefCount: 1
    m_Data: {fileID: -1481171363, guid: 343219c75412b1d41b530e34b2d5267f, type: 3}
  - m_RefCount: 1
    m_Data: {fileID: -884363746, guid: 343219c75412b1d41b530e34b2d5267f, type: 3}
  - m_RefCount: 1
    m_Data: {fileID: -541833666, guid: 343219c75412b1d41b530e34b2d5267f, type: 3}
  - m_RefCount: 1
    m_Data: {fileID: 984474383, guid: 343219c75412b1d41b530e34b2d5267f, type: 3}
  - m_RefCount: 1
    m_Data: {fileID: -308757305, guid: 343219c75412b1d41b530e34b2d5267f, type: 3}
  - m_RefCount: 1
    m_Data: {fileID: 404568343, guid: 343219c75412b1d41b530e34b2d5267f, type: 3}
  - m_RefCount: 1
    m_Data: {fileID: 204983811, guid: 343219c75412b1d41b530e34b2d5267f, type: 3}
  - m_RefCount: 1
    m_Data: {fileID: -1084882709, guid: 343219c75412b1d41b530e34b2d5267f, type: 3}
  - m_RefCount: 1
    m_Data: {fileID: -357041892, guid: 343219c75412b1d41b530e34b2d5267f, type: 3}
  - m_RefCount: 1
    m_Data: {fileID: -379307540, guid: 343219c75412b1d41b530e34b2d5267f, type: 3}
  - m_RefCount: 1
    m_Data: {fileID: 115301803, guid: 343219c75412b1d41b530e34b2d5267f, type: 3}
  - m_RefCount: 1
    m_Data: {fileID: -1857853833, guid: 343219c75412b1d41b530e34b2d5267f, type: 3}
  - m_RefCount: 1
    m_Data: {fileID: -365486183, guid: 343219c75412b1d41b530e34b2d5267f, type: 3}
  - m_RefCount: 1
    m_Data: {fileID: -1750229100, guid: 343219c75412b1d41b530e34b2d5267f, type: 3}
  - m_RefCount: 1
    m_Data: {fileID: -2077277950, guid: 343219c75412b1d41b530e34b2d5267f, type: 3}
  - m_RefCount: 1
    m_Data: {fileID: 474770293, guid: 343219c75412b1d41b530e34b2d5267f, type: 3}
  - m_RefCount: 1
    m_Data: {fileID: 902797223, guid: 343219c75412b1d41b530e34b2d5267f, type: 3}
  - m_RefCount: 1
    m_Data: {fileID: 1680766303, guid: 343219c75412b1d41b530e34b2d5267f, type: 3}
  - m_RefCount: 1
    m_Data: {fileID: 1507971673, guid: 343219c75412b1d41b530e34b2d5267f, type: 3}
  - m_RefCount: 1
    m_Data: {fileID: -1462770602, guid: 343219c75412b1d41b530e34b2d5267f, type: 3}
  - m_RefCount: 1
    m_Data: {fileID: 1243094882, guid: 343219c75412b1d41b530e34b2d5267f, type: 3}
  - m_RefCount: 1
    m_Data: {fileID: -818067835, guid: 343219c75412b1d41b530e34b2d5267f, type: 3}
  - m_RefCount: 1
    m_Data: {fileID: 988766472, guid: 343219c75412b1d41b530e34b2d5267f, type: 3}
  - m_RefCount: 1
    m_Data: {fileID: -302118418, guid: 343219c75412b1d41b530e34b2d5267f, type: 3}
  - m_RefCount: 1
    m_Data: {fileID: 311682981, guid: 343219c75412b1d41b530e34b2d5267f, type: 3}
  m_TileMatrixArray:
  - m_RefCount: 61
    m_Data:
      e00: 1
      e01: 0
      e02: 0
      e03: 0
      e10: 0
      e11: 1
      e12: 0
      e13: 0
      e20: 0
      e21: 0
      e22: 1
      e23: 0
      e30: 0
      e31: 0
      e32: 0
      e33: 1
  m_TileColorArray:
  - m_RefCount: 61
    m_Data: {r: 1, g: 1, b: 1, a: 1}
  m_TileObjectToInstantiateArray: []
  m_AnimationFrameRate: 1
  m_Color: {r: 1, g: 1, b: 1, a: 1}
  m_Origin: {x: -1, y: -6, z: 0}
  m_Size: {x: 14, y: 10, z: 1}
  m_TileAnchor: {x: 0.5, y: 0.5, z: 0}
  m_TileOrientation: 0
  m_TileOrientationMatrix:
    e00: 1
    e01: 0
    e02: 0
    e03: 0
    e10: 0
    e11: 1
    e12: 0
    e13: 0
    e20: 0
    e21: 0
    e22: 1
    e23: 0
    e30: 0
    e31: 0
    e32: 0
    e33: 1
--- !u!483693784 &9037588333072652001
TilemapRenderer:
  m_ObjectHideFlags: 0
  m_CorrespondingSourceObject: {fileID: 0}
  m_PrefabInstance: {fileID: 0}
  m_PrefabAsset: {fileID: 0}
  m_GameObject: {fileID: 8907916871394593612}
  m_Enabled: 1
  m_CastShadows: 0
  m_ReceiveShadows: 0
  m_DynamicOccludee: 0
  m_StaticShadowCaster: 0
  m_MotionVectors: 1
  m_LightProbeUsage: 0
  m_ReflectionProbeUsage: 0
  m_RayTracingMode: 0
  m_RayTraceProcedural: 0
  m_RenderingLayerMask: 1
  m_RendererPriority: 0
  m_Materials:
  - {fileID: 2100000, guid: a97c105638bdf8b4a8650670310a4cd3, type: 2}
  m_StaticBatchInfo:
    firstSubMesh: 0
    subMeshCount: 0
  m_StaticBatchRoot: {fileID: 0}
  m_ProbeAnchor: {fileID: 0}
  m_LightProbeVolumeOverride: {fileID: 0}
  m_ScaleInLightmap: 1
  m_ReceiveGI: 1
  m_PreserveUVs: 0
  m_IgnoreNormalsForChartDetection: 0
  m_ImportantGI: 0
  m_StitchLightmapSeams: 1
  m_SelectedEditorRenderState: 0
  m_MinimumChartSize: 4
  m_AutoUVMaxDistance: 0.5
  m_AutoUVMaxAngle: 89
  m_LightmapParameters: {fileID: 0}
  m_SortingLayerID: 0
  m_SortingLayer: 0
  m_SortingOrder: 0
  m_ChunkSize: {x: 32, y: 32, z: 32}
  m_ChunkCullingBounds: {x: 0, y: 0, z: 0}
  m_MaxChunkCount: 16
  m_MaxFrameAge: 16
  m_SortOrder: 0
  m_Mode: 0
  m_DetectChunkCullingBounds: 0
  m_MaskInteraction: 0
--- !u!114 &730167962842499690
MonoBehaviour:
  m_ObjectHideFlags: 0
  m_CorrespondingSourceObject: {fileID: 0}
  m_PrefabInstance: {fileID: 0}
  m_PrefabAsset: {fileID: 0}
  m_GameObject: {fileID: 0}
  m_Enabled: 1
  m_EditorHideFlags: 0
  m_Script: {fileID: 12395, guid: 0000000000000000e000000000000000, type: 0}
  m_Name: Palette Settings
  m_EditorClassIdentifier: 
  cellSizing: 0
  m_TransparencySortMode: 0
  m_TransparencySortAxis: {x: 0, y: 0, z: 1}
