%YAML 1.1
%TAG !u! tag:unity3d.com,2011:
--- !u!1 &1510847985816455873
GameObject:
  m_ObjectHideFlags: 0
  m_CorrespondingSourceObject: {fileID: 0}
  m_PrefabInstance: {fileID: 0}
  m_PrefabAsset: {fileID: 0}
  serializedVersion: 6
  m_Component:
  - component: {fileID: 6375647296885174555}
  - component: {fileID: 8123165873448642246}
  m_Layer: 0
  m_Name: Grass
  m_TagString: Untagged
  m_Icon: {fileID: 0}
  m_NavMeshLayer: 0
  m_StaticEditorFlags: 0
  m_IsActive: 1
--- !u!4 &6375647296885174555
Transform:
  m_ObjectHideFlags: 0
  m_CorrespondingSourceObject: {fileID: 0}
  m_PrefabInstance: {fileID: 0}
  m_PrefabAsset: {fileID: 0}
  m_GameObject: {fileID: 1510847985816455873}
  serializedVersion: 2
  m_LocalRotation: {x: 0, y: 0, z: 0, w: 1}
  m_LocalPosition: {x: 0, y: 0, z: 0}
  m_LocalScale: {x: 1, y: 1, z: 1}
  m_ConstrainProportionsScale: 0
  m_Children:
  - {fileID: 570610322045353085}
  m_Father: {fileID: 0}
  m_LocalEulerAnglesHint: {x: 0, y: 0, z: 0}
--- !u!156049354 &8123165873448642246
Grid:
  m_ObjectHideFlags: 0
  m_CorrespondingSourceObject: {fileID: 0}
  m_PrefabInstance: {fileID: 0}
  m_PrefabAsset: {fileID: 0}
  m_GameObject: {fileID: 1510847985816455873}
  m_Enabled: 1
  m_CellSize: {x: 1, y: 1, z: 0}
  m_CellGap: {x: 0, y: 0, z: 0}
  m_CellLayout: 0
  m_CellSwizzle: 0
--- !u!1 &6684586799890174765
GameObject:
  m_ObjectHideFlags: 0
  m_CorrespondingSourceObject: {fileID: 0}
  m_PrefabInstance: {fileID: 0}
  m_PrefabAsset: {fileID: 0}
  serializedVersion: 6
  m_Component:
  - component: {fileID: 570610322045353085}
  - component: {fileID: 8211996967429639123}
  - component: {fileID: 4807448513397713932}
  m_Layer: 0
  m_Name: Layer1
  m_TagString: Untagged
  m_Icon: {fileID: 0}
  m_NavMeshLayer: 0
  m_StaticEditorFlags: 0
  m_IsActive: 1
--- !u!4 &570610322045353085
Transform:
  m_ObjectHideFlags: 0
  m_CorrespondingSourceObject: {fileID: 0}
  m_PrefabInstance: {fileID: 0}
  m_PrefabAsset: {fileID: 0}
  m_GameObject: {fileID: 6684586799890174765}
  serializedVersion: 2
  m_LocalRotation: {x: -0, y: -0, z: -0, w: 1}
  m_LocalPosition: {x: 0, y: 0, z: 0}
  m_LocalScale: {x: 1, y: 1, z: 1}
  m_ConstrainProportionsScale: 0
  m_Children: []
  m_Father: {fileID: 6375647296885174555}
  m_LocalEulerAnglesHint: {x: 0, y: 0, z: 0}
--- !u!1839735485 &8211996967429639123
Tilemap:
  m_ObjectHideFlags: 0
  m_CorrespondingSourceObject: {fileID: 0}
  m_PrefabInstance: {fileID: 0}
  m_PrefabAsset: {fileID: 0}
  m_GameObject: {fileID: 6684586799890174765}
  m_Enabled: 1
  m_Tiles:
  - first: {x: -1, y: -8, z: 0}
    second:
      serializedVersion: 2
      m_TileIndex: 56
      m_TileSpriteIndex: 56
      m_TileMatrixIndex: 0
      m_TileColorIndex: 0
      m_TileObjectToInstantiateIndex: 65535
      dummyAlignment: 0
      m_AllTileFlags: 1073741825
  - first: {x: 0, y: -8, z: 0}
    second:
      serializedVersion: 2
      m_TileIndex: 57
      m_TileSpriteIndex: 57
      m_TileMatrixIndex: 0
      m_TileColorIndex: 0
      m_TileObjectToInstantiateIndex: 65535
      dummyAlignment: 0
      m_AllTileFlags: 1073741825
  - first: {x: 1, y: -8, z: 0}
    second:
      serializedVersion: 2
      m_TileIndex: 58
      m_TileSpriteIndex: 58
      m_TileMatrixIndex: 0
      m_TileColorIndex: 0
      m_TileObjectToInstantiateIndex: 65535
      dummyAlignment: 0
      m_AllTileFlags: 1073741825
  - first: {x: 2, y: -8, z: 0}
    second:
      serializedVersion: 2
      m_TileIndex: 59
      m_TileSpriteIndex: 59
      m_TileMatrixIndex: 0
      m_TileColorIndex: 0
      m_TileObjectToInstantiateIndex: 65535
      dummyAlignment: 0
      m_AllTileFlags: 1073741825
  - first: {x: 3, y: -8, z: 0}
    second:
      serializedVersion: 2
      m_TileIndex: 60
      m_TileSpriteIndex: 60
      m_TileMatrixIndex: 0
      m_TileColorIndex: 0
      m_TileObjectToInstantiateIndex: 65535
      dummyAlignment: 0
      m_AllTileFlags: 1073741825
  - first: {x: 4, y: -8, z: 0}
    second:
      serializedVersion: 2
      m_TileIndex: 61
      m_TileSpriteIndex: 61
      m_TileMatrixIndex: 0
      m_TileColorIndex: 0
      m_TileObjectToInstantiateIndex: 65535
      dummyAlignment: 0
      m_AllTileFlags: 1073741825
  - first: {x: 5, y: -8, z: 0}
    second:
      serializedVersion: 2
      m_TileIndex: 62
      m_TileSpriteIndex: 62
      m_TileMatrixIndex: 0
      m_TileColorIndex: 0
      m_TileObjectToInstantiateIndex: 65535
      dummyAlignment: 0
      m_AllTileFlags: 1073741825
  - first: {x: 6, y: -8, z: 0}
    second:
      serializedVersion: 2
      m_TileIndex: 63
      m_TileSpriteIndex: 63
      m_TileMatrixIndex: 0
      m_TileColorIndex: 0
      m_TileObjectToInstantiateIndex: 65535
      dummyAlignment: 0
      m_AllTileFlags: 1073741825
  - first: {x: -1, y: -7, z: 0}
    second:
      serializedVersion: 2
      m_TileIndex: 48
      m_TileSpriteIndex: 48
      m_TileMatrixIndex: 0
      m_TileColorIndex: 0
      m_TileObjectToInstantiateIndex: 65535
      dummyAlignment: 0
      m_AllTileFlags: 1073741825
  - first: {x: 0, y: -7, z: 0}
    second:
      serializedVersion: 2
      m_TileIndex: 49
      m_TileSpriteIndex: 49
      m_TileMatrixIndex: 0
      m_TileColorIndex: 0
      m_TileObjectToInstantiateIndex: 65535
      dummyAlignment: 0
      m_AllTileFlags: 1073741825
  - first: {x: 1, y: -7, z: 0}
    second:
      serializedVersion: 2
      m_TileIndex: 50
      m_TileSpriteIndex: 50
      m_TileMatrixIndex: 0
      m_TileColorIndex: 0
      m_TileObjectToInstantiateIndex: 65535
      dummyAlignment: 0
      m_AllTileFlags: 1073741825
  - first: {x: 2, y: -7, z: 0}
    second:
      serializedVersion: 2
      m_TileIndex: 51
      m_TileSpriteIndex: 51
      m_TileMatrixIndex: 0
      m_TileColorIndex: 0
      m_TileObjectToInstantiateIndex: 65535
      dummyAlignment: 0
      m_AllTileFlags: 1073741825
  - first: {x: 3, y: -7, z: 0}
    second:
      serializedVersion: 2
      m_TileIndex: 52
      m_TileSpriteIndex: 52
      m_TileMatrixIndex: 0
      m_TileColorIndex: 0
      m_TileObjectToInstantiateIndex: 65535
      dummyAlignment: 0
      m_AllTileFlags: 1073741825
  - first: {x: 4, y: -7, z: 0}
    second:
      serializedVersion: 2
      m_TileIndex: 53
      m_TileSpriteIndex: 53
      m_TileMatrixIndex: 0
      m_TileColorIndex: 0
      m_TileObjectToInstantiateIndex: 65535
      dummyAlignment: 0
      m_AllTileFlags: 1073741825
  - first: {x: 5, y: -7, z: 0}
    second:
      serializedVersion: 2
      m_TileIndex: 54
      m_TileSpriteIndex: 54
      m_TileMatrixIndex: 0
      m_TileColorIndex: 0
      m_TileObjectToInstantiateIndex: 65535
      dummyAlignment: 0
      m_AllTileFlags: 1073741825
  - first: {x: 6, y: -7, z: 0}
    second:
      serializedVersion: 2
      m_TileIndex: 55
      m_TileSpriteIndex: 55
      m_TileMatrixIndex: 0
      m_TileColorIndex: 0
      m_TileObjectToInstantiateIndex: 65535
      dummyAlignment: 0
      m_AllTileFlags: 1073741825
  - first: {x: -1, y: -6, z: 0}
    second:
      serializedVersion: 2
      m_TileIndex: 40
      m_TileSpriteIndex: 40
      m_TileMatrixIndex: 0
      m_TileColorIndex: 0
      m_TileObjectToInstantiateIndex: 65535
      dummyAlignment: 0
      m_AllTileFlags: 1073741825
  - first: {x: 0, y: -6, z: 0}
    second:
      serializedVersion: 2
      m_TileIndex: 41
      m_TileSpriteIndex: 41
      m_TileMatrixIndex: 0
      m_TileColorIndex: 0
      m_TileObjectToInstantiateIndex: 65535
      dummyAlignment: 0
      m_AllTileFlags: 1073741825
  - first: {x: 1, y: -6, z: 0}
    second:
      serializedVersion: 2
      m_TileIndex: 42
      m_TileSpriteIndex: 42
      m_TileMatrixIndex: 0
      m_TileColorIndex: 0
      m_TileObjectToInstantiateIndex: 65535
      dummyAlignment: 0
      m_AllTileFlags: 1073741825
  - first: {x: 2, y: -6, z: 0}
    second:
      serializedVersion: 2
      m_TileIndex: 43
      m_TileSpriteIndex: 43
      m_TileMatrixIndex: 0
      m_TileColorIndex: 0
      m_TileObjectToInstantiateIndex: 65535
      dummyAlignment: 0
      m_AllTileFlags: 1073741825
  - first: {x: 3, y: -6, z: 0}
    second:
      serializedVersion: 2
      m_TileIndex: 44
      m_TileSpriteIndex: 44
      m_TileMatrixIndex: 0
      m_TileColorIndex: 0
      m_TileObjectToInstantiateIndex: 65535
      dummyAlignment: 0
      m_AllTileFlags: 1073741825
  - first: {x: 4, y: -6, z: 0}
    second:
      serializedVersion: 2
      m_TileIndex: 45
      m_TileSpriteIndex: 45
      m_TileMatrixIndex: 0
      m_TileColorIndex: 0
      m_TileObjectToInstantiateIndex: 65535
      dummyAlignment: 0
      m_AllTileFlags: 1073741825
  - first: {x: 5, y: -6, z: 0}
    second:
      serializedVersion: 2
      m_TileIndex: 46
      m_TileSpriteIndex: 46
      m_TileMatrixIndex: 0
      m_TileColorIndex: 0
      m_TileObjectToInstantiateIndex: 65535
      dummyAlignment: 0
      m_AllTileFlags: 1073741825
  - first: {x: 6, y: -6, z: 0}
    second:
      serializedVersion: 2
      m_TileIndex: 47
      m_TileSpriteIndex: 47
      m_TileMatrixIndex: 0
      m_TileColorIndex: 0
      m_TileObjectToInstantiateIndex: 65535
      dummyAlignment: 0
      m_AllTileFlags: 1073741825
  - first: {x: -1, y: -5, z: 0}
    second:
      serializedVersion: 2
      m_TileIndex: 32
      m_TileSpriteIndex: 32
      m_TileMatrixIndex: 0
      m_TileColorIndex: 0
      m_TileObjectToInstantiateIndex: 65535
      dummyAlignment: 0
      m_AllTileFlags: 1073741825
  - first: {x: 0, y: -5, z: 0}
    second:
      serializedVersion: 2
      m_TileIndex: 33
      m_TileSpriteIndex: 33
      m_TileMatrixIndex: 0
      m_TileColorIndex: 0
      m_TileObjectToInstantiateIndex: 65535
      dummyAlignment: 0
      m_AllTileFlags: 1073741825
  - first: {x: 1, y: -5, z: 0}
    second:
      serializedVersion: 2
      m_TileIndex: 34
      m_TileSpriteIndex: 34
      m_TileMatrixIndex: 0
      m_TileColorIndex: 0
      m_TileObjectToInstantiateIndex: 65535
      dummyAlignment: 0
      m_AllTileFlags: 1073741825
  - first: {x: 2, y: -5, z: 0}
    second:
      serializedVersion: 2
      m_TileIndex: 35
      m_TileSpriteIndex: 35
      m_TileMatrixIndex: 0
      m_TileColorIndex: 0
      m_TileObjectToInstantiateIndex: 65535
      dummyAlignment: 0
      m_AllTileFlags: 1073741825
  - first: {x: 3, y: -5, z: 0}
    second:
      serializedVersion: 2
      m_TileIndex: 36
      m_TileSpriteIndex: 36
      m_TileMatrixIndex: 0
      m_TileColorIndex: 0
      m_TileObjectToInstantiateIndex: 65535
      dummyAlignment: 0
      m_AllTileFlags: 1073741825
  - first: {x: 4, y: -5, z: 0}
    second:
      serializedVersion: 2
      m_TileIndex: 37
      m_TileSpriteIndex: 37
      m_TileMatrixIndex: 0
      m_TileColorIndex: 0
      m_TileObjectToInstantiateIndex: 65535
      dummyAlignment: 0
      m_AllTileFlags: 1073741825
  - first: {x: 5, y: -5, z: 0}
    second:
      serializedVersion: 2
      m_TileIndex: 38
      m_TileSpriteIndex: 38
      m_TileMatrixIndex: 0
      m_TileColorIndex: 0
      m_TileObjectToInstantiateIndex: 65535
      dummyAlignment: 0
      m_AllTileFlags: 1073741825
  - first: {x: 6, y: -5, z: 0}
    second:
      serializedVersion: 2
      m_TileIndex: 39
      m_TileSpriteIndex: 39
      m_TileMatrixIndex: 0
      m_TileColorIndex: 0
      m_TileObjectToInstantiateIndex: 65535
      dummyAlignment: 0
      m_AllTileFlags: 1073741825
  - first: {x: -1, y: -4, z: 0}
    second:
      serializedVersion: 2
      m_TileIndex: 24
      m_TileSpriteIndex: 24
      m_TileMatrixIndex: 0
      m_TileColorIndex: 0
      m_TileObjectToInstantiateIndex: 65535
      dummyAlignment: 0
      m_AllTileFlags: 1073741825
  - first: {x: 0, y: -4, z: 0}
    second:
      serializedVersion: 2
      m_TileIndex: 25
      m_TileSpriteIndex: 25
      m_TileMatrixIndex: 0
      m_TileColorIndex: 0
      m_TileObjectToInstantiateIndex: 65535
      dummyAlignment: 0
      m_AllTileFlags: 1073741825
  - first: {x: 1, y: -4, z: 0}
    second:
      serializedVersion: 2
      m_TileIndex: 26
      m_TileSpriteIndex: 26
      m_TileMatrixIndex: 0
      m_TileColorIndex: 0
      m_TileObjectToInstantiateIndex: 65535
      dummyAlignment: 0
      m_AllTileFlags: 1073741825
  - first: {x: 2, y: -4, z: 0}
    second:
      serializedVersion: 2
      m_TileIndex: 27
      m_TileSpriteIndex: 27
      m_TileMatrixIndex: 0
      m_TileColorIndex: 0
      m_TileObjectToInstantiateIndex: 65535
      dummyAlignment: 0
      m_AllTileFlags: 1073741825
  - first: {x: 3, y: -4, z: 0}
    second:
      serializedVersion: 2
      m_TileIndex: 28
      m_TileSpriteIndex: 28
      m_TileMatrixIndex: 0
      m_TileColorIndex: 0
      m_TileObjectToInstantiateIndex: 65535
      dummyAlignment: 0
      m_AllTileFlags: 1073741825
  - first: {x: 4, y: -4, z: 0}
    second:
      serializedVersion: 2
      m_TileIndex: 29
      m_TileSpriteIndex: 29
      m_TileMatrixIndex: 0
      m_TileColorIndex: 0
      m_TileObjectToInstantiateIndex: 65535
      dummyAlignment: 0
      m_AllTileFlags: 1073741825
  - first: {x: 5, y: -4, z: 0}
    second:
      serializedVersion: 2
      m_TileIndex: 30
      m_TileSpriteIndex: 30
      m_TileMatrixIndex: 0
      m_TileColorIndex: 0
      m_TileObjectToInstantiateIndex: 65535
      dummyAlignment: 0
      m_AllTileFlags: 1073741825
  - first: {x: 6, y: -4, z: 0}
    second:
      serializedVersion: 2
      m_TileIndex: 31
      m_TileSpriteIndex: 31
      m_TileMatrixIndex: 0
      m_TileColorIndex: 0
      m_TileObjectToInstantiateIndex: 65535
      dummyAlignment: 0
      m_AllTileFlags: 1073741825
  - first: {x: -1, y: -3, z: 0}
    second:
      serializedVersion: 2
      m_TileIndex: 16
      m_TileSpriteIndex: 16
      m_TileMatrixIndex: 0
      m_TileColorIndex: 0
      m_TileObjectToInstantiateIndex: 65535
      dummyAlignment: 0
      m_AllTileFlags: 1073741825
  - first: {x: 0, y: -3, z: 0}
    second:
      serializedVersion: 2
      m_TileIndex: 17
      m_TileSpriteIndex: 17
      m_TileMatrixIndex: 0
      m_TileColorIndex: 0
      m_TileObjectToInstantiateIndex: 65535
      dummyAlignment: 0
      m_AllTileFlags: 1073741825
  - first: {x: 1, y: -3, z: 0}
    second:
      serializedVersion: 2
      m_TileIndex: 18
      m_TileSpriteIndex: 18
      m_TileMatrixIndex: 0
      m_TileColorIndex: 0
      m_TileObjectToInstantiateIndex: 65535
      dummyAlignment: 0
      m_AllTileFlags: 1073741825
  - first: {x: 2, y: -3, z: 0}
    second:
      serializedVersion: 2
      m_TileIndex: 19
      m_TileSpriteIndex: 19
      m_TileMatrixIndex: 0
      m_TileColorIndex: 0
      m_TileObjectToInstantiateIndex: 65535
      dummyAlignment: 0
      m_AllTileFlags: 1073741825
  - first: {x: 3, y: -3, z: 0}
    second:
      serializedVersion: 2
      m_TileIndex: 20
      m_TileSpriteIndex: 20
      m_TileMatrixIndex: 0
      m_TileColorIndex: 0
      m_TileObjectToInstantiateIndex: 65535
      dummyAlignment: 0
      m_AllTileFlags: 1073741825
  - first: {x: 4, y: -3, z: 0}
    second:
      serializedVersion: 2
      m_TileIndex: 21
      m_TileSpriteIndex: 21
      m_TileMatrixIndex: 0
      m_TileColorIndex: 0
      m_TileObjectToInstantiateIndex: 65535
      dummyAlignment: 0
      m_AllTileFlags: 1073741825
  - first: {x: 5, y: -3, z: 0}
    second:
      serializedVersion: 2
      m_TileIndex: 22
      m_TileSpriteIndex: 22
      m_TileMatrixIndex: 0
      m_TileColorIndex: 0
      m_TileObjectToInstantiateIndex: 65535
      dummyAlignment: 0
      m_AllTileFlags: 1073741825
  - first: {x: 6, y: -3, z: 0}
    second:
      serializedVersion: 2
      m_TileIndex: 23
      m_TileSpriteIndex: 23
      m_TileMatrixIndex: 0
      m_TileColorIndex: 0
      m_TileObjectToInstantiateIndex: 65535
      dummyAlignment: 0
      m_AllTileFlags: 1073741825
  - first: {x: -1, y: -2, z: 0}
    second:
      serializedVersion: 2
      m_TileIndex: 8
      m_TileSpriteIndex: 8
      m_TileMatrixIndex: 0
      m_TileColorIndex: 0
      m_TileObjectToInstantiateIndex: 65535
      dummyAlignment: 0
      m_AllTileFlags: 1073741825
  - first: {x: 0, y: -2, z: 0}
    second:
      serializedVersion: 2
      m_TileIndex: 9
      m_TileSpriteIndex: 9
      m_TileMatrixIndex: 0
      m_TileColorIndex: 0
      m_TileObjectToInstantiateIndex: 65535
      dummyAlignment: 0
      m_AllTileFlags: 1073741825
  - first: {x: 1, y: -2, z: 0}
    second:
      serializedVersion: 2
      m_TileIndex: 10
      m_TileSpriteIndex: 10
      m_TileMatrixIndex: 0
      m_TileColorIndex: 0
      m_TileObjectToInstantiateIndex: 65535
      dummyAlignment: 0
      m_AllTileFlags: 1073741825
  - first: {x: 2, y: -2, z: 0}
    second:
      serializedVersion: 2
      m_TileIndex: 11
      m_TileSpriteIndex: 11
      m_TileMatrixIndex: 0
      m_TileColorIndex: 0
      m_TileObjectToInstantiateIndex: 65535
      dummyAlignment: 0
      m_AllTileFlags: 1073741825
  - first: {x: 3, y: -2, z: 0}
    second:
      serializedVersion: 2
      m_TileIndex: 12
      m_TileSpriteIndex: 12
      m_TileMatrixIndex: 0
      m_TileColorIndex: 0
      m_TileObjectToInstantiateIndex: 65535
      dummyAlignment: 0
      m_AllTileFlags: 1073741825
  - first: {x: 4, y: -2, z: 0}
    second:
      serializedVersion: 2
      m_TileIndex: 13
      m_TileSpriteIndex: 13
      m_TileMatrixIndex: 0
      m_TileColorIndex: 0
      m_TileObjectToInstantiateIndex: 65535
      dummyAlignment: 0
      m_AllTileFlags: 1073741825
  - first: {x: 5, y: -2, z: 0}
    second:
      serializedVersion: 2
      m_TileIndex: 14
      m_TileSpriteIndex: 14
      m_TileMatrixIndex: 0
      m_TileColorIndex: 0
      m_TileObjectToInstantiateIndex: 65535
      dummyAlignment: 0
      m_AllTileFlags: 1073741825
  - first: {x: 6, y: -2, z: 0}
    second:
      serializedVersion: 2
      m_TileIndex: 15
      m_TileSpriteIndex: 15
      m_TileMatrixIndex: 0
      m_TileColorIndex: 0
      m_TileObjectToInstantiateIndex: 65535
      dummyAlignment: 0
      m_AllTileFlags: 1073741825
  - first: {x: -1, y: -1, z: 0}
    second:
      serializedVersion: 2
      m_TileIndex: 0
      m_TileSpriteIndex: 0
      m_TileMatrixIndex: 0
      m_TileColorIndex: 0
      m_TileObjectToInstantiateIndex: 65535
      dummyAlignment: 0
      m_AllTileFlags: 1073741825
  - first: {x: 0, y: -1, z: 0}
    second:
      serializedVersion: 2
      m_TileIndex: 1
      m_TileSpriteIndex: 1
      m_TileMatrixIndex: 0
      m_TileColorIndex: 0
      m_TileObjectToInstantiateIndex: 65535
      dummyAlignment: 0
      m_AllTileFlags: 1073741825
  - first: {x: 1, y: -1, z: 0}
    second:
      serializedVersion: 2
      m_TileIndex: 2
      m_TileSpriteIndex: 2
      m_TileMatrixIndex: 0
      m_TileColorIndex: 0
      m_TileObjectToInstantiateIndex: 65535
      dummyAlignment: 0
      m_AllTileFlags: 1073741825
  - first: {x: 2, y: -1, z: 0}
    second:
      serializedVersion: 2
      m_TileIndex: 3
      m_TileSpriteIndex: 3
      m_TileMatrixIndex: 0
      m_TileColorIndex: 0
      m_TileObjectToInstantiateIndex: 65535
      dummyAlignment: 0
      m_AllTileFlags: 1073741825
  - first: {x: 3, y: -1, z: 0}
    second:
      serializedVersion: 2
      m_TileIndex: 4
      m_TileSpriteIndex: 4
      m_TileMatrixIndex: 0
      m_TileColorIndex: 0
      m_TileObjectToInstantiateIndex: 65535
      dummyAlignment: 0
      m_AllTileFlags: 1073741825
  - first: {x: 4, y: -1, z: 0}
    second:
      serializedVersion: 2
      m_TileIndex: 5
      m_TileSpriteIndex: 5
      m_TileMatrixIndex: 0
      m_TileColorIndex: 0
      m_TileObjectToInstantiateIndex: 65535
      dummyAlignment: 0
      m_AllTileFlags: 1073741825
  - first: {x: 5, y: -1, z: 0}
    second:
      serializedVersion: 2
      m_TileIndex: 6
      m_TileSpriteIndex: 6
      m_TileMatrixIndex: 0
      m_TileColorIndex: 0
      m_TileObjectToInstantiateIndex: 65535
      dummyAlignment: 0
      m_AllTileFlags: 1073741825
  - first: {x: 6, y: -1, z: 0}
    second:
      serializedVersion: 2
      m_TileIndex: 7
      m_TileSpriteIndex: 7
      m_TileMatrixIndex: 0
      m_TileColorIndex: 0
      m_TileObjectToInstantiateIndex: 65535
      dummyAlignment: 0
      m_AllTileFlags: 1073741825
  m_AnimatedTiles: {}
  m_TileAssetArray:
  - m_RefCount: 1
    m_Data: {fileID: 11400000, guid: 4d116324a4cd2eb46801b78f4590c83f, type: 2}
  - m_RefCount: 1
    m_Data: {fileID: 11400000, guid: 3963ea077cf9a1e45b5ce592a8e287cd, type: 2}
  - m_RefCount: 1
    m_Data: {fileID: 11400000, guid: df6ac816138644c409637a60d7794571, type: 2}
  - m_RefCount: 1
    m_Data: {fileID: 11400000, guid: c66394d41fccd584f80456ed5dcbe19d, type: 2}
  - m_RefCount: 1
    m_Data: {fileID: 11400000, guid: b3b73886244d44e4896de1e1872d725f, type: 2}
  - m_RefCount: 1
    m_Data: {fileID: 11400000, guid: b843481310685be40beb102bcc90b723, type: 2}
  - m_RefCount: 1
    m_Data: {fileID: 11400000, guid: 3df57254d4c3bd84a80f73cf6176b1c1, type: 2}
  - m_RefCount: 1
    m_Data: {fileID: 11400000, guid: 7e7f6a71241c79c40b1fe0c8b9e31c84, type: 2}
  - m_RefCount: 1
    m_Data: {fileID: 11400000, guid: 75577df860c2ed644959c136422554c4, type: 2}
  - m_RefCount: 1
    m_Data: {fileID: 11400000, guid: 0585d0972511ad34f96ed442a003bc22, type: 2}
  - m_RefCount: 1
    m_Data: {fileID: 11400000, guid: 67aa1646c081bf34c9dac2e960c0f4eb, type: 2}
  - m_RefCount: 1
    m_Data: {fileID: 11400000, guid: 2a63cfafcf8827246b2e3c74cab2eb1c, type: 2}
  - m_RefCount: 1
    m_Data: {fileID: 11400000, guid: fa82b61afb36888448924831198cfbde, type: 2}
  - m_RefCount: 1
    m_Data: {fileID: 11400000, guid: bc16db3a764394748bf9c6586ca27bed, type: 2}
  - m_RefCount: 1
    m_Data: {fileID: 11400000, guid: 020596d7f56c60640992a310368b6bf3, type: 2}
  - m_RefCount: 1
    m_Data: {fileID: 11400000, guid: de01f2f365817fe44b93b8671756a967, type: 2}
  - m_RefCount: 1
    m_Data: {fileID: 11400000, guid: 34c10756c60db5347b8aa44d55f12591, type: 2}
  - m_RefCount: 1
    m_Data: {fileID: 11400000, guid: 334f992bacf3b5f46aabbb3b234824da, type: 2}
  - m_RefCount: 1
    m_Data: {fileID: 11400000, guid: 38d18bb1de5057a4eb395363ab52e952, type: 2}
  - m_RefCount: 1
    m_Data: {fileID: 11400000, guid: 4557f535b948ba44798f28b1ff89859b, type: 2}
  - m_RefCount: 1
    m_Data: {fileID: 11400000, guid: fcfce0846805afa4ba1ac32a73fe3ce8, type: 2}
  - m_RefCount: 1
    m_Data: {fileID: 11400000, guid: 0893f468b7a5d434986381220e137779, type: 2}
  - m_RefCount: 1
    m_Data: {fileID: 11400000, guid: 71073060d1c7081498015f4941cc227f, type: 2}
  - m_RefCount: 1
    m_Data: {fileID: 11400000, guid: ce1129f156fb5084d8d3c029d16c5f11, type: 2}
  - m_RefCount: 1
    m_Data: {fileID: 11400000, guid: c14759923b2634846b6a1f0a535ea6a3, type: 2}
  - m_RefCount: 1
    m_Data: {fileID: 11400000, guid: 98b21a74e3414e64f9dc5b79b4398d9b, type: 2}
  - m_RefCount: 1
    m_Data: {fileID: 11400000, guid: a8e563366ba1bc84099abc146496ea7a, type: 2}
  - m_RefCount: 1
    m_Data: {fileID: 11400000, guid: e34e6729681ea4a4db4144db2ab4716e, type: 2}
  - m_RefCount: 1
    m_Data: {fileID: 11400000, guid: 9cd88c33231e6cd4896418e0ecabf63f, type: 2}
  - m_RefCount: 1
    m_Data: {fileID: 11400000, guid: cabeed75bd81fe84685438c0ae9fe0c1, type: 2}
  - m_RefCount: 1
    m_Data: {fileID: 11400000, guid: 7aeb38f4d8307f644b90c64271bc7f25, type: 2}
  - m_RefCount: 1
    m_Data: {fileID: 11400000, guid: 9048190fbfc90664e8f046684eb3631b, type: 2}
  - m_RefCount: 1
    m_Data: {fileID: 11400000, guid: 44c3462d40f175049b97e5cc0aa5abd3, type: 2}
  - m_RefCount: 1
    m_Data: {fileID: 11400000, guid: 2448ef54dcf0aa346846620ec1a290a6, type: 2}
  - m_RefCount: 1
    m_Data: {fileID: 11400000, guid: 3ce7fe281af48b54e96dec554a9f5fd4, type: 2}
  - m_RefCount: 1
    m_Data: {fileID: 11400000, guid: c271621df3ae0fd40b3da804872e6f29, type: 2}
  - m_RefCount: 1
    m_Data: {fileID: 11400000, guid: 1dfe6831b04d9a84e88bcf0f3d7afa6f, type: 2}
  - m_RefCount: 1
    m_Data: {fileID: 11400000, guid: ac3389965c72e7a4f82d7f9408f9eba1, type: 2}
  - m_RefCount: 1
    m_Data: {fileID: 11400000, guid: 25c8ec325e9e7fe48bce97e806ede646, type: 2}
  - m_RefCount: 1
    m_Data: {fileID: 11400000, guid: 5e7622eb504e71849a6ba9b85bb7b43d, type: 2}
  - m_RefCount: 1
    m_Data: {fileID: 11400000, guid: 0a7506f14dc06ff4eab36e12e8e74c7a, type: 2}
  - m_RefCount: 1
    m_Data: {fileID: 11400000, guid: 1e81450438e142b42bb953574cf5fd1b, type: 2}
  - m_RefCount: 1
    m_Data: {fileID: 11400000, guid: cfc1ab13da930be4b955a99b1ca7c333, type: 2}
  - m_RefCount: 1
    m_Data: {fileID: 11400000, guid: 4226a7c73d7d7274da3d6fdf23556c93, type: 2}
  - m_RefCount: 1
    m_Data: {fileID: 11400000, guid: 68249407f43c625429dc8739295ba754, type: 2}
  - m_RefCount: 1
    m_Data: {fileID: 11400000, guid: 2be65dbc87a71394fbe480b4613e6868, type: 2}
  - m_RefCount: 1
    m_Data: {fileID: 11400000, guid: 7d30f1c037d9b984696c67beb59e6a98, type: 2}
  - m_RefCount: 1
    m_Data: {fileID: 11400000, guid: 0c2211fd2edf23e49befeb6a09577345, type: 2}
  - m_RefCount: 1
    m_Data: {fileID: 11400000, guid: 10cf2a29e6389e5438934909c37d1f7c, type: 2}
  - m_RefCount: 1
    m_Data: {fileID: 11400000, guid: d276285191fb4de4f99e6948cce0afaf, type: 2}
  - m_RefCount: 1
    m_Data: {fileID: 11400000, guid: 97d55728faaf8e3439ae778747a848cd, type: 2}
  - m_RefCount: 1
    m_Data: {fileID: 11400000, guid: 1c14695123d7bf34ca6511fa617e76c3, type: 2}
  - m_RefCount: 1
    m_Data: {fileID: 11400000, guid: c34dd5eb656290b49acba2fc57fa80c9, type: 2}
  - m_RefCount: 1
    m_Data: {fileID: 11400000, guid: e032fb6576929cf4d9ddf7dbefdf4dae, type: 2}
  - m_RefCount: 1
    m_Data: {fileID: 11400000, guid: 5c2b2d1395c5f4d4792d5773c4bd94b1, type: 2}
  - m_RefCount: 1
    m_Data: {fileID: 11400000, guid: 2f4fdb6d47f53ab41a3b7ff339d3ed6a, type: 2}
  - m_RefCount: 1
    m_Data: {fileID: 11400000, guid: 25532787824cf1443b50771bfb17a01d, type: 2}
  - m_RefCount: 1
    m_Data: {fileID: 11400000, guid: 08984ed86c1ecc84c95a35a79cb9932f, type: 2}
  - m_RefCount: 1
    m_Data: {fileID: 11400000, guid: d2bbf1977a8ec6a46becb2d1532bee51, type: 2}
  - m_RefCount: 1
    m_Data: {fileID: 11400000, guid: ef5b9966e5ede0644989e9ed4436dda9, type: 2}
  - m_RefCount: 1
    m_Data: {fileID: 11400000, guid: ab676792e67b89f44beaeb334b15cc10, type: 2}
  - m_RefCount: 1
    m_Data: {fileID: 11400000, guid: fe75426c631e96243b28dfca783946ff, type: 2}
  - m_RefCount: 1
    m_Data: {fileID: 11400000, guid: eb068c00472006642af0db54546dc2ee, type: 2}
  - m_RefCount: 1
    m_Data: {fileID: 11400000, guid: 2e8b1a2d3d102fb47a7ad354ae050fc2, type: 2}
  m_TileSpriteArray:
  - m_RefCount: 1
    m_Data: {fileID: -1861197018, guid: 63473ac0df8606247bf374160cdb1314, type: 3}
  - m_RefCount: 1
    m_Data: {fileID: -1827434429, guid: 63473ac0df8606247bf374160cdb1314, type: 3}
  - m_RefCount: 1
    m_Data: {fileID: 1263099329, guid: 63473ac0df8606247bf374160cdb1314, type: 3}
  - m_RefCount: 1
    m_Data: {fileID: -886434556, guid: 63473ac0df8606247bf374160cdb1314, type: 3}
  - m_RefCount: 1
    m_Data: {fileID: 1478308949, guid: 63473ac0df8606247bf374160cdb1314, type: 3}
  - m_RefCount: 1
    m_Data: {fileID: -338825477, guid: 63473ac0df8606247bf374160cdb1314, type: 3}
  - m_RefCount: 1
    m_Data: {fileID: 1197818907, guid: 63473ac0df8606247bf374160cdb1314, type: 3}
  - m_RefCount: 1
    m_Data: {fileID: -118609783, guid: 63473ac0df8606247bf374160cdb1314, type: 3}
  - m_RefCount: 1
    m_Data: {fileID: -1117951872, guid: 63473ac0df8606247bf374160cdb1314, type: 3}
  - m_RefCount: 1
    m_Data: {fileID: 142147275, guid: 63473ac0df8606247bf374160cdb1314, type: 3}
  - m_RefCount: 1
    m_Data: {fileID: 333147384, guid: 63473ac0df8606247bf374160cdb1314, type: 3}
  - m_RefCount: 1
    m_Data: {fileID: 1130753891, guid: 63473ac0df8606247bf374160cdb1314, type: 3}
  - m_RefCount: 1
    m_Data: {fileID: -2107619174, guid: 63473ac0df8606247bf374160cdb1314, type: 3}
  - m_RefCount: 1
    m_Data: {fileID: -1780177117, guid: 63473ac0df8606247bf374160cdb1314, type: 3}
  - m_RefCount: 1
    m_Data: {fileID: 1007152935, guid: 63473ac0df8606247bf374160cdb1314, type: 3}
  - m_RefCount: 1
    m_Data: {fileID: -1741691183, guid: 63473ac0df8606247bf374160cdb1314, type: 3}
  - m_RefCount: 1
    m_Data: {fileID: 2008115963, guid: 63473ac0df8606247bf374160cdb1314, type: 3}
  - m_RefCount: 1
    m_Data: {fileID: -1200181704, guid: 63473ac0df8606247bf374160cdb1314, type: 3}
  - m_RefCount: 1
    m_Data: {fileID: -957926513, guid: 63473ac0df8606247bf374160cdb1314, type: 3}
  - m_RefCount: 1
    m_Data: {fileID: 1346819060, guid: 63473ac0df8606247bf374160cdb1314, type: 3}
  - m_RefCount: 1
    m_Data: {fileID: -557916278, guid: 63473ac0df8606247bf374160cdb1314, type: 3}
  - m_RefCount: 1
    m_Data: {fileID: -510740459, guid: 63473ac0df8606247bf374160cdb1314, type: 3}
  - m_RefCount: 1
    m_Data: {fileID: -104885137, guid: 63473ac0df8606247bf374160cdb1314, type: 3}
  - m_RefCount: 1
    m_Data: {fileID: 1540246639, guid: 63473ac0df8606247bf374160cdb1314, type: 3}
  - m_RefCount: 1
    m_Data: {fileID: -2024805298, guid: 63473ac0df8606247bf374160cdb1314, type: 3}
  - m_RefCount: 1
    m_Data: {fileID: 346875606, guid: 63473ac0df8606247bf374160cdb1314, type: 3}
  - m_RefCount: 1
    m_Data: {fileID: -819802397, guid: 63473ac0df8606247bf374160cdb1314, type: 3}
  - m_RefCount: 1
    m_Data: {fileID: -1439728683, guid: 63473ac0df8606247bf374160cdb1314, type: 3}
  - m_RefCount: 1
    m_Data: {fileID: -2141825807, guid: 63473ac0df8606247bf374160cdb1314, type: 3}
  - m_RefCount: 1
    m_Data: {fileID: -2093512873, guid: 63473ac0df8606247bf374160cdb1314, type: 3}
  - m_RefCount: 1
    m_Data: {fileID: 1646142694, guid: 63473ac0df8606247bf374160cdb1314, type: 3}
  - m_RefCount: 1
    m_Data: {fileID: -1953785742, guid: 63473ac0df8606247bf374160cdb1314, type: 3}
  - m_RefCount: 1
    m_Data: {fileID: 1863377642, guid: 63473ac0df8606247bf374160cdb1314, type: 3}
  - m_RefCount: 1
    m_Data: {fileID: -879237242, guid: 63473ac0df8606247bf374160cdb1314, type: 3}
  - m_RefCount: 1
    m_Data: {fileID: -2021846382, guid: 63473ac0df8606247bf374160cdb1314, type: 3}
  - m_RefCount: 1
    m_Data: {fileID: -298468569, guid: 63473ac0df8606247bf374160cdb1314, type: 3}
  - m_RefCount: 1
    m_Data: {fileID: 1517478229, guid: 63473ac0df8606247bf374160cdb1314, type: 3}
  - m_RefCount: 1
    m_Data: {fileID: 1830965777, guid: 63473ac0df8606247bf374160cdb1314, type: 3}
  - m_RefCount: 1
    m_Data: {fileID: -231947410, guid: 63473ac0df8606247bf374160cdb1314, type: 3}
  - m_RefCount: 1
    m_Data: {fileID: -1208038107, guid: 63473ac0df8606247bf374160cdb1314, type: 3}
  - m_RefCount: 1
    m_Data: {fileID: -1957032986, guid: 63473ac0df8606247bf374160cdb1314, type: 3}
  - m_RefCount: 1
    m_Data: {fileID: -756493202, guid: 63473ac0df8606247bf374160cdb1314, type: 3}
  - m_RefCount: 1
    m_Data: {fileID: 138621738, guid: 63473ac0df8606247bf374160cdb1314, type: 3}
  - m_RefCount: 1
    m_Data: {fileID: 2111168828, guid: 63473ac0df8606247bf374160cdb1314, type: 3}
  - m_RefCount: 1
    m_Data: {fileID: 867033796, guid: 63473ac0df8606247bf374160cdb1314, type: 3}
  - m_RefCount: 1
    m_Data: {fileID: 1809957628, guid: 63473ac0df8606247bf374160cdb1314, type: 3}
  - m_RefCount: 1
    m_Data: {fileID: -1338273236, guid: 63473ac0df8606247bf374160cdb1314, type: 3}
  - m_RefCount: 1
    m_Data: {fileID: 1525555779, guid: 63473ac0df8606247bf374160cdb1314, type: 3}
  - m_RefCount: 1
    m_Data: {fileID: -621942614, guid: 63473ac0df8606247bf374160cdb1314, type: 3}
  - m_RefCount: 1
    m_Data: {fileID: -1177115335, guid: 63473ac0df8606247bf374160cdb1314, type: 3}
  - m_RefCount: 1
    m_Data: {fileID: -653994151, guid: 63473ac0df8606247bf374160cdb1314, type: 3}
  - m_RefCount: 1
    m_Data: {fileID: 224569935, guid: 63473ac0df8606247bf374160cdb1314, type: 3}
  - m_RefCount: 1
    m_Data: {fileID: -1132246315, guid: 63473ac0df8606247bf374160cdb1314, type: 3}
  - m_RefCount: 1
    m_Data: {fileID: 862873628, guid: 63473ac0df8606247bf374160cdb1314, type: 3}
  - m_RefCount: 1
    m_Data: {fileID: -847568255, guid: 63473ac0df8606247bf374160cdb1314, type: 3}
  - m_RefCount: 1
    m_Data: {fileID: -927041166, guid: 63473ac0df8606247bf374160cdb1314, type: 3}
  - m_RefCount: 1
    m_Data: {fileID: -392253740, guid: 63473ac0df8606247bf374160cdb1314, type: 3}
  - m_RefCount: 1
    m_Data: {fileID: -330232422, guid: 63473ac0df8606247bf374160cdb1314, type: 3}
  - m_RefCount: 1
    m_Data: {fileID: 1307434247, guid: 63473ac0df8606247bf374160cdb1314, type: 3}
  - m_RefCount: 1
    m_Data: {fileID: 1648675715, guid: 63473ac0df8606247bf374160cdb1314, type: 3}
  - m_RefCount: 1
    m_Data: {fileID: -1471934643, guid: 63473ac0df8606247bf374160cdb1314, type: 3}
  - m_RefCount: 1
    m_Data: {fileID: 584163668, guid: 63473ac0df8606247bf374160cdb1314, type: 3}
  - m_RefCount: 1
    m_Data: {fileID: -944440691, guid: 63473ac0df8606247bf374160cdb1314, type: 3}
  - m_RefCount: 1
    m_Data: {fileID: -413049186, guid: 63473ac0df8606247bf374160cdb1314, type: 3}
  m_TileMatrixArray:
  - m_RefCount: 64
    m_Data:
      e00: 1
      e01: 0
      e02: 0
      e03: 0
      e10: 0
      e11: 1
      e12: 0
      e13: 0
      e20: 0
      e21: 0
      e22: 1
      e23: 0
      e30: 0
      e31: 0
      e32: 0
      e33: 1
  m_TileColorArray:
  - m_RefCount: 64
    m_Data: {r: 1, g: 1, b: 1, a: 1}
  m_TileObjectToInstantiateArray: []
  m_AnimationFrameRate: 1
  m_Color: {r: 1, g: 1, b: 1, a: 1}
  m_Origin: {x: -1, y: -8, z: 0}
  m_Size: {x: 8, y: 8, z: 1}
  m_TileAnchor: {x: 0.5, y: 0.5, z: 0}
  m_TileOrientation: 0
  m_TileOrientationMatrix:
    e00: 1
    e01: 0
    e02: 0
    e03: 0
    e10: 0
    e11: 1
    e12: 0
    e13: 0
    e20: 0
    e21: 0
    e22: 1
    e23: 0
    e30: 0
    e31: 0
    e32: 0
    e33: 1
--- !u!483693784 &4807448513397713932
TilemapRenderer:
  m_ObjectHideFlags: 0
  m_CorrespondingSourceObject: {fileID: 0}
  m_PrefabInstance: {fileID: 0}
  m_PrefabAsset: {fileID: 0}
  m_GameObject: {fileID: 6684586799890174765}
  m_Enabled: 1
  m_CastShadows: 0
  m_ReceiveShadows: 0
  m_DynamicOccludee: 0
  m_StaticShadowCaster: 0
  m_MotionVectors: 1
  m_LightProbeUsage: 0
  m_ReflectionProbeUsage: 0
  m_RayTracingMode: 0
  m_RayTraceProcedural: 0
  m_RenderingLayerMask: 1
  m_RendererPriority: 0
  m_Materials:
  - {fileID: 2100000, guid: a97c105638bdf8b4a8650670310a4cd3, type: 2}
  m_StaticBatchInfo:
    firstSubMesh: 0
    subMeshCount: 0
  m_StaticBatchRoot: {fileID: 0}
  m_ProbeAnchor: {fileID: 0}
  m_LightProbeVolumeOverride: {fileID: 0}
  m_ScaleInLightmap: 1
  m_ReceiveGI: 1
  m_PreserveUVs: 0
  m_IgnoreNormalsForChartDetection: 0
  m_ImportantGI: 0
  m_StitchLightmapSeams: 1
  m_SelectedEditorRenderState: 0
  m_MinimumChartSize: 4
  m_AutoUVMaxDistance: 0.5
  m_AutoUVMaxAngle: 89
  m_LightmapParameters: {fileID: 0}
  m_SortingLayerID: 0
  m_SortingLayer: 0
  m_SortingOrder: 0
  m_ChunkSize: {x: 32, y: 32, z: 32}
  m_ChunkCullingBounds: {x: 0, y: 0, z: 0}
  m_MaxChunkCount: 16
  m_MaxFrameAge: 16
  m_SortOrder: 0
  m_Mode: 0
  m_DetectChunkCullingBounds: 0
  m_MaskInteraction: 0
--- !u!114 &7604618475087703175
MonoBehaviour:
  m_ObjectHideFlags: 0
  m_CorrespondingSourceObject: {fileID: 0}
  m_PrefabInstance: {fileID: 0}
  m_PrefabAsset: {fileID: 0}
  m_GameObject: {fileID: 0}
  m_Enabled: 1
  m_EditorHideFlags: 0
  m_Script: {fileID: 12395, guid: 0000000000000000e000000000000000, type: 0}
  m_Name: Palette Settings
  m_EditorClassIdentifier: 
  cellSizing: 0
  m_TransparencySortMode: 0
  m_TransparencySortAxis: {x: 0, y: 0, z: 1}
