%YAML 1.1
%TAG !u! tag:unity3d.com,2011:
--- !u!74 &7400000
AnimationClip:
  m_ObjectHideFlags: 0
  m_CorrespondingSourceObject: {fileID: 0}
  m_PrefabInstance: {fileID: 0}
  m_PrefabAsset: {fileID: 0}
  m_Name: Crane-Play
  serializedVersion: 7
  m_Legacy: 0
  m_Compressed: 0
  m_UseHighQualityCurve: 1
  m_RotationCurves: []
  m_CompressedRotationCurves: []
  m_EulerCurves: []
  m_PositionCurves: []
  m_ScaleCurves: []
  m_FloatCurves: []
  m_PPtrCurves:
  - serializedVersion: 2
    curve:
    - time: 0
      value: {fileID: 999002781, guid: 9a5eaad90ea550d42819c20ed59fb4d5, type: 3}
    - time: 0.1
      value: {fileID: 1196568840, guid: 9a5eaad90ea550d42819c20ed59fb4d5, type: 3}
    - time: 0.2
      value: {fileID: -488117741, guid: 9a5eaad90ea550d42819c20ed59fb4d5, type: 3}
    - time: 0.3
      value: {fileID: -55609920, guid: 9a5eaad90ea550d42819c20ed59fb4d5, type: 3}
    - time: 0.4
      value: {fileID: 232892698, guid: 9a5eaad90ea550d42819c20ed59fb4d5, type: 3}
    - time: 0.5
      value: {fileID: 1072881140, guid: 9a5eaad90ea550d42819c20ed59fb4d5, type: 3}
    - time: 0.6
      value: {fileID: 399444427, guid: 9a5eaad90ea550d42819c20ed59fb4d5, type: 3}
    - time: 0.7
      value: {fileID: -84488205, guid: 9a5eaad90ea550d42819c20ed59fb4d5, type: 3}
    - time: 0.8
      value: {fileID: 766776097, guid: 9a5eaad90ea550d42819c20ed59fb4d5, type: 3}
    - time: 0.9
      value: {fileID: -1444353853, guid: 9a5eaad90ea550d42819c20ed59fb4d5, type: 3}
    - time: 1
      value: {fileID: -1847309960, guid: 9a5eaad90ea550d42819c20ed59fb4d5, type: 3}
    - time: 1.1
      value: {fileID: -398723067, guid: 9a5eaad90ea550d42819c20ed59fb4d5, type: 3}
    - time: 1.2
      value: {fileID: 1476808439, guid: 9a5eaad90ea550d42819c20ed59fb4d5, type: 3}
    - time: 1.3
      value: {fileID: -311922573, guid: 9a5eaad90ea550d42819c20ed59fb4d5, type: 3}
    attribute: m_Sprite
    path: 
    classID: 212
    script: {fileID: 0}
    flags: 2
  m_SampleRate: 10
  m_WrapMode: 0
  m_Bounds:
    m_Center: {x: 0, y: 0, z: 0}
    m_Extent: {x: 0, y: 0, z: 0}
  m_ClipBindingConstant:
    genericBindings:
    - serializedVersion: 2
      path: 0
      attribute: 0
      script: {fileID: 0}
      typeID: 212
      customType: 23
      isPPtrCurve: 1
      isIntCurve: 0
      isSerializeReferenceCurve: 0
    pptrCurveMapping:
    - {fileID: 999002781, guid: 9a5eaad90ea550d42819c20ed59fb4d5, type: 3}
    - {fileID: 1196568840, guid: 9a5eaad90ea550d42819c20ed59fb4d5, type: 3}
    - {fileID: -488117741, guid: 9a5eaad90ea550d42819c20ed59fb4d5, type: 3}
    - {fileID: -55609920, guid: 9a5eaad90ea550d42819c20ed59fb4d5, type: 3}
    - {fileID: 232892698, guid: 9a5eaad90ea550d42819c20ed59fb4d5, type: 3}
    - {fileID: 1072881140, guid: 9a5eaad90ea550d42819c20ed59fb4d5, type: 3}
    - {fileID: 399444427, guid: 9a5eaad90ea550d42819c20ed59fb4d5, type: 3}
    - {fileID: -84488205, guid: 9a5eaad90ea550d42819c20ed59fb4d5, type: 3}
    - {fileID: 766776097, guid: 9a5eaad90ea550d42819c20ed59fb4d5, type: 3}
    - {fileID: -1444353853, guid: 9a5eaad90ea550d42819c20ed59fb4d5, type: 3}
    - {fileID: -1847309960, guid: 9a5eaad90ea550d42819c20ed59fb4d5, type: 3}
    - {fileID: -398723067, guid: 9a5eaad90ea550d42819c20ed59fb4d5, type: 3}
    - {fileID: 1476808439, guid: 9a5eaad90ea550d42819c20ed59fb4d5, type: 3}
    - {fileID: -311922573, guid: 9a5eaad90ea550d42819c20ed59fb4d5, type: 3}
  m_AnimationClipSettings:
    serializedVersion: 2
    m_AdditiveReferencePoseClip: {fileID: 0}
    m_AdditiveReferencePoseTime: 0
    m_StartTime: 0
    m_StopTime: 1.4
    m_OrientationOffsetY: 0
    m_Level: 0
    m_CycleOffset: 0
    m_HasAdditiveReferencePose: 0
    m_LoopTime: 0
    m_LoopBlend: 0
    m_LoopBlendOrientation: 0
    m_LoopBlendPositionY: 0
    m_LoopBlendPositionXZ: 0
    m_KeepOriginalOrientation: 0
    m_KeepOriginalPositionY: 1
    m_KeepOriginalPositionXZ: 0
    m_HeightFromFeet: 0
    m_Mirror: 0
  m_EditorCurves: []
  m_EulerEditorCurves: []
  m_HasGenericRootTransform: 0
  m_HasMotionFloatCurves: 0
  m_Events: []
